…
Let's say I wanted to remove some outliers that didn't seem to fit the mood of the overall playlist, like those in that have too high of a valence in **vault.** Using dplyr, I can arrange the songs in **vault.** to see which I should take out. 
```
# A tibble: 188 x 4
   valence energy track_name                        artist_name  
     <dbl>  <dbl> <chr>                             <chr>        
 1   0.796 0.0514 Ether                             Puma Blue    
 2   0.735 0.17   Baby Please                       Black Pool   
 3   0.707 0.437  all the kids are depressed        Jeremy Zucker
 4   0.603 0.473  When You're Ready                 Shawn Mendes 
 5   0.578 0.469  Our House by the Waterfall        Rook1e       
 6   0.575 0.376  Erase                             Omar Apollo  
 7   0.546 0.109  im closing my eyes (feat. shiloh) potsu        
 8   0.544 0.267  Show Me How                       Men I Trust  
 9   0.538 0.43   Idk Love                          Jeremy Zucker
10   0.538 0.505  SAN MARCOS                        BROCKHAMPTON 
# ... with 178 more rows
```
…
